EESchema Schematic File Version 4
EELAYER 30 0
EELAYER END
$Descr A4 11693 8268
encoding utf-8
Sheet 1 1
Title ""
Date ""
Rev ""
Comp ""
Comment1 ""
Comment2 ""
Comment3 ""
Comment4 ""
$EndDescr
$Comp
L Device:R_POT_Dual RV1
U 1 1 61BB6D27
P 5800 3550
F 0 "RV1" H 5150 3600 50  0000 C CNN
F 1 "R_POT_Dual" H 5000 3500 50  0000 C CNN
F 2 "Kuosch:PTD902-2015K-A104" H 6050 3475 50  0001 C CNN
F 3 "~" H 6050 3475 50  0001 C CNN
	1    5800 3550
	1    0    0    -1  
$EndComp
Text Label 5400 3800 3    50   ~ 0
In1
Text Label 5550 3400 1    50   ~ 0
Out1
Text Label 6050 3400 1    50   ~ 0
Out2
Text Label 5900 3800 3    50   ~ 0
In2
Wire Wire Line
	6200 3800 6200 3650
Wire Wire Line
	5900 3800 5900 3650
Wire Wire Line
	5700 3800 5700 3650
Wire Wire Line
	5400 3800 5400 3650
Wire Wire Line
	5550 3450 5550 3400
Wire Wire Line
	6050 3450 6050 3400
$Comp
L power:GND #PWR0101
U 1 1 61BB7C20
P 5700 3800
F 0 "#PWR0101" H 5700 3550 50  0001 C CNN
F 1 "GND" H 5705 3627 50  0000 C CNN
F 2 "" H 5700 3800 50  0001 C CNN
F 3 "" H 5700 3800 50  0001 C CNN
	1    5700 3800
	1    0    0    -1  
$EndComp
$Comp
L power:GND #PWR0102
U 1 1 61BB81F8
P 6200 3800
F 0 "#PWR0102" H 6200 3550 50  0001 C CNN
F 1 "GND" H 6205 3627 50  0000 C CNN
F 2 "" H 6200 3800 50  0001 C CNN
F 3 "" H 6200 3800 50  0001 C CNN
	1    6200 3800
	1    0    0    -1  
$EndComp
$Comp
L Connector:Conn_01x02_Male J1
U 1 1 61BB876F
P 5000 2900
F 0 "J1" H 5108 3081 50  0000 C CNN
F 1 "Conn_01x02_Male" H 5108 2990 50  0000 C CNN
F 2 "Connector_PinHeader_2.54mm:PinHeader_1x02_P2.54mm_Vertical" H 5000 2900 50  0001 C CNN
F 3 "~" H 5000 2900 50  0001 C CNN
	1    5000 2900
	1    0    0    -1  
$EndComp
$Comp
L Connector:Conn_01x02_Male J2
U 1 1 61BB8C7E
P 5700 2900
F 0 "J2" H 5808 3081 50  0000 C CNN
F 1 "Conn_01x02_Male" H 5808 2990 50  0000 C CNN
F 2 "Connector_PinHeader_2.54mm:PinHeader_1x02_P2.54mm_Vertical" H 5700 2900 50  0001 C CNN
F 3 "~" H 5700 2900 50  0001 C CNN
	1    5700 2900
	1    0    0    -1  
$EndComp
$Comp
L Connector:Conn_01x02_Male J3
U 1 1 61BB93E8
P 6400 2900
F 0 "J3" H 6508 3081 50  0000 C CNN
F 1 "Conn_01x02_Male" H 6508 2990 50  0000 C CNN
F 2 "Connector_PinHeader_2.54mm:PinHeader_1x02_P2.54mm_Vertical" H 6400 2900 50  0001 C CNN
F 3 "~" H 6400 2900 50  0001 C CNN
	1    6400 2900
	1    0    0    -1  
$EndComp
$Comp
L Connector:Conn_01x02_Male J4
U 1 1 61BB986C
P 7100 2900
F 0 "J4" H 7208 3081 50  0000 C CNN
F 1 "Conn_01x02_Male" H 7208 2990 50  0000 C CNN
F 2 "Connector_PinHeader_2.54mm:PinHeader_1x02_P2.54mm_Vertical" H 7100 2900 50  0001 C CNN
F 3 "~" H 7100 2900 50  0001 C CNN
	1    7100 2900
	1    0    0    -1  
$EndComp
Text Label 7300 2900 0    50   ~ 0
Out2
Text Label 6600 2900 0    50   ~ 0
Out1
Text Label 5200 2900 0    50   ~ 0
In1
Text Label 5900 2900 0    50   ~ 0
In2
$Comp
L power:GND #PWR0103
U 1 1 61BBA4B7
P 5200 3000
F 0 "#PWR0103" H 5200 2750 50  0001 C CNN
F 1 "GND" H 5205 2827 50  0000 C CNN
F 2 "" H 5200 3000 50  0001 C CNN
F 3 "" H 5200 3000 50  0001 C CNN
	1    5200 3000
	1    0    0    -1  
$EndComp
$Comp
L power:GND #PWR0104
U 1 1 61BBA8BB
P 5900 3000
F 0 "#PWR0104" H 5900 2750 50  0001 C CNN
F 1 "GND" H 5905 2827 50  0000 C CNN
F 2 "" H 5900 3000 50  0001 C CNN
F 3 "" H 5900 3000 50  0001 C CNN
	1    5900 3000
	1    0    0    -1  
$EndComp
$Comp
L power:GND #PWR0105
U 1 1 61BBABDA
P 6600 3000
F 0 "#PWR0105" H 6600 2750 50  0001 C CNN
F 1 "GND" H 6605 2827 50  0000 C CNN
F 2 "" H 6600 3000 50  0001 C CNN
F 3 "" H 6600 3000 50  0001 C CNN
	1    6600 3000
	1    0    0    -1  
$EndComp
$Comp
L power:GND #PWR0106
U 1 1 61BBAF51
P 7300 3000
F 0 "#PWR0106" H 7300 2750 50  0001 C CNN
F 1 "GND" H 7305 2827 50  0000 C CNN
F 2 "" H 7300 3000 50  0001 C CNN
F 3 "" H 7300 3000 50  0001 C CNN
	1    7300 3000
	1    0    0    -1  
$EndComp
$EndSCHEMATC
