G04 #@! TF.GenerationSoftware,KiCad,Pcbnew,(5.1.4)-1*
G04 #@! TF.CreationDate,2021-12-16T17:19:03+00:00*
G04 #@! TF.ProjectId,bourns_breakout,626f7572-6e73-45f6-9272-65616b6f7574,rev?*
G04 #@! TF.SameCoordinates,Original*
G04 #@! TF.FileFunction,Legend,Top*
G04 #@! TF.FilePolarity,Positive*
%FSLAX46Y46*%
G04 Gerber Fmt 4.6, Leading zero omitted, Abs format (unit mm)*
G04 Created by KiCad (PCBNEW (5.1.4)-1) date 2021-12-16 17:19:03*
%MOMM*%
%LPD*%
G04 APERTURE LIST*
%ADD10C,0.150000*%
%ADD11C,0.120000*%
G04 APERTURE END LIST*
D10*
X159645000Y-111603571D02*
X159787857Y-111651190D01*
X159835476Y-111698809D01*
X159883095Y-111794047D01*
X159883095Y-111936904D01*
X159835476Y-112032142D01*
X159787857Y-112079761D01*
X159692619Y-112127380D01*
X159311666Y-112127380D01*
X159311666Y-111127380D01*
X159645000Y-111127380D01*
X159740238Y-111175000D01*
X159787857Y-111222619D01*
X159835476Y-111317857D01*
X159835476Y-111413095D01*
X159787857Y-111508333D01*
X159740238Y-111555952D01*
X159645000Y-111603571D01*
X159311666Y-111603571D01*
X160454523Y-112127380D02*
X160359285Y-112079761D01*
X160311666Y-112032142D01*
X160264047Y-111936904D01*
X160264047Y-111651190D01*
X160311666Y-111555952D01*
X160359285Y-111508333D01*
X160454523Y-111460714D01*
X160597380Y-111460714D01*
X160692619Y-111508333D01*
X160740238Y-111555952D01*
X160787857Y-111651190D01*
X160787857Y-111936904D01*
X160740238Y-112032142D01*
X160692619Y-112079761D01*
X160597380Y-112127380D01*
X160454523Y-112127380D01*
X161645000Y-111460714D02*
X161645000Y-112127380D01*
X161216428Y-111460714D02*
X161216428Y-111984523D01*
X161264047Y-112079761D01*
X161359285Y-112127380D01*
X161502142Y-112127380D01*
X161597380Y-112079761D01*
X161645000Y-112032142D01*
X162121190Y-112127380D02*
X162121190Y-111460714D01*
X162121190Y-111651190D02*
X162168809Y-111555952D01*
X162216428Y-111508333D01*
X162311666Y-111460714D01*
X162406904Y-111460714D01*
X162740238Y-111460714D02*
X162740238Y-112127380D01*
X162740238Y-111555952D02*
X162787857Y-111508333D01*
X162883095Y-111460714D01*
X163025952Y-111460714D01*
X163121190Y-111508333D01*
X163168809Y-111603571D01*
X163168809Y-112127380D01*
X163597380Y-112079761D02*
X163692619Y-112127380D01*
X163883095Y-112127380D01*
X163978333Y-112079761D01*
X164025952Y-111984523D01*
X164025952Y-111936904D01*
X163978333Y-111841666D01*
X163883095Y-111794047D01*
X163740238Y-111794047D01*
X163645000Y-111746428D01*
X163597380Y-111651190D01*
X163597380Y-111603571D01*
X163645000Y-111508333D01*
X163740238Y-111460714D01*
X163883095Y-111460714D01*
X163978333Y-111508333D01*
X159073571Y-113777380D02*
X159073571Y-112777380D01*
X159454523Y-112777380D01*
X159549761Y-112825000D01*
X159597380Y-112872619D01*
X159645000Y-112967857D01*
X159645000Y-113110714D01*
X159597380Y-113205952D01*
X159549761Y-113253571D01*
X159454523Y-113301190D01*
X159073571Y-113301190D01*
X159930714Y-112777380D02*
X160502142Y-112777380D01*
X160216428Y-113777380D02*
X160216428Y-112777380D01*
X160835476Y-113777380D02*
X160835476Y-112777380D01*
X161073571Y-112777380D01*
X161216428Y-112825000D01*
X161311666Y-112920238D01*
X161359285Y-113015476D01*
X161406904Y-113205952D01*
X161406904Y-113348809D01*
X161359285Y-113539285D01*
X161311666Y-113634523D01*
X161216428Y-113729761D01*
X161073571Y-113777380D01*
X160835476Y-113777380D01*
X161883095Y-113777380D02*
X162073571Y-113777380D01*
X162168809Y-113729761D01*
X162216428Y-113682142D01*
X162311666Y-113539285D01*
X162359285Y-113348809D01*
X162359285Y-112967857D01*
X162311666Y-112872619D01*
X162264047Y-112825000D01*
X162168809Y-112777380D01*
X161978333Y-112777380D01*
X161883095Y-112825000D01*
X161835476Y-112872619D01*
X161787857Y-112967857D01*
X161787857Y-113205952D01*
X161835476Y-113301190D01*
X161883095Y-113348809D01*
X161978333Y-113396428D01*
X162168809Y-113396428D01*
X162264047Y-113348809D01*
X162311666Y-113301190D01*
X162359285Y-113205952D01*
X162978333Y-112777380D02*
X163073571Y-112777380D01*
X163168809Y-112825000D01*
X163216428Y-112872619D01*
X163264047Y-112967857D01*
X163311666Y-113158333D01*
X163311666Y-113396428D01*
X163264047Y-113586904D01*
X163216428Y-113682142D01*
X163168809Y-113729761D01*
X163073571Y-113777380D01*
X162978333Y-113777380D01*
X162883095Y-113729761D01*
X162835476Y-113682142D01*
X162787857Y-113586904D01*
X162740238Y-113396428D01*
X162740238Y-113158333D01*
X162787857Y-112967857D01*
X162835476Y-112872619D01*
X162883095Y-112825000D01*
X162978333Y-112777380D01*
X163692619Y-112872619D02*
X163740238Y-112825000D01*
X163835476Y-112777380D01*
X164073571Y-112777380D01*
X164168809Y-112825000D01*
X164216428Y-112872619D01*
X164264047Y-112967857D01*
X164264047Y-113063095D01*
X164216428Y-113205952D01*
X163645000Y-113777380D01*
X164264047Y-113777380D01*
X172855000Y-106687857D02*
X172807380Y-106783095D01*
X172807380Y-106925952D01*
X172855000Y-107068809D01*
X172950238Y-107164047D01*
X173045476Y-107211666D01*
X173235952Y-107259285D01*
X173378809Y-107259285D01*
X173569285Y-107211666D01*
X173664523Y-107164047D01*
X173759761Y-107068809D01*
X173807380Y-106925952D01*
X173807380Y-106830714D01*
X173759761Y-106687857D01*
X173712142Y-106640238D01*
X173378809Y-106640238D01*
X173378809Y-106830714D01*
X173140714Y-106211666D02*
X173807380Y-106211666D01*
X173235952Y-106211666D02*
X173188333Y-106164047D01*
X173140714Y-106068809D01*
X173140714Y-105925952D01*
X173188333Y-105830714D01*
X173283571Y-105783095D01*
X173807380Y-105783095D01*
X173807380Y-104878333D02*
X172807380Y-104878333D01*
X173759761Y-104878333D02*
X173807380Y-104973571D01*
X173807380Y-105164047D01*
X173759761Y-105259285D01*
X173712142Y-105306904D01*
X173616904Y-105354523D01*
X173331190Y-105354523D01*
X173235952Y-105306904D01*
X173188333Y-105259285D01*
X173140714Y-105164047D01*
X173140714Y-104973571D01*
X173188333Y-104878333D01*
X172855000Y-114307857D02*
X172807380Y-114403095D01*
X172807380Y-114545952D01*
X172855000Y-114688809D01*
X172950238Y-114784047D01*
X173045476Y-114831666D01*
X173235952Y-114879285D01*
X173378809Y-114879285D01*
X173569285Y-114831666D01*
X173664523Y-114784047D01*
X173759761Y-114688809D01*
X173807380Y-114545952D01*
X173807380Y-114450714D01*
X173759761Y-114307857D01*
X173712142Y-114260238D01*
X173378809Y-114260238D01*
X173378809Y-114450714D01*
X173140714Y-113831666D02*
X173807380Y-113831666D01*
X173235952Y-113831666D02*
X173188333Y-113784047D01*
X173140714Y-113688809D01*
X173140714Y-113545952D01*
X173188333Y-113450714D01*
X173283571Y-113403095D01*
X173807380Y-113403095D01*
X173807380Y-112498333D02*
X172807380Y-112498333D01*
X173759761Y-112498333D02*
X173807380Y-112593571D01*
X173807380Y-112784047D01*
X173759761Y-112879285D01*
X173712142Y-112926904D01*
X173616904Y-112974523D01*
X173331190Y-112974523D01*
X173235952Y-112926904D01*
X173188333Y-112879285D01*
X173140714Y-112784047D01*
X173140714Y-112593571D01*
X173188333Y-112498333D01*
X172807380Y-111323333D02*
X172807380Y-111132857D01*
X172855000Y-111037619D01*
X172950238Y-110942380D01*
X173140714Y-110894761D01*
X173474047Y-110894761D01*
X173664523Y-110942380D01*
X173759761Y-111037619D01*
X173807380Y-111132857D01*
X173807380Y-111323333D01*
X173759761Y-111418571D01*
X173664523Y-111513809D01*
X173474047Y-111561428D01*
X173140714Y-111561428D01*
X172950238Y-111513809D01*
X172855000Y-111418571D01*
X172807380Y-111323333D01*
X173140714Y-110037619D02*
X173807380Y-110037619D01*
X173140714Y-110466190D02*
X173664523Y-110466190D01*
X173759761Y-110418571D01*
X173807380Y-110323333D01*
X173807380Y-110180476D01*
X173759761Y-110085238D01*
X173712142Y-110037619D01*
X173140714Y-109704285D02*
X173140714Y-109323333D01*
X172807380Y-109561428D02*
X173664523Y-109561428D01*
X173759761Y-109513809D01*
X173807380Y-109418571D01*
X173807380Y-109323333D01*
X172807380Y-103703333D02*
X172807380Y-103512857D01*
X172855000Y-103417619D01*
X172950238Y-103322380D01*
X173140714Y-103274761D01*
X173474047Y-103274761D01*
X173664523Y-103322380D01*
X173759761Y-103417619D01*
X173807380Y-103512857D01*
X173807380Y-103703333D01*
X173759761Y-103798571D01*
X173664523Y-103893809D01*
X173474047Y-103941428D01*
X173140714Y-103941428D01*
X172950238Y-103893809D01*
X172855000Y-103798571D01*
X172807380Y-103703333D01*
X173140714Y-102417619D02*
X173807380Y-102417619D01*
X173140714Y-102846190D02*
X173664523Y-102846190D01*
X173759761Y-102798571D01*
X173807380Y-102703333D01*
X173807380Y-102560476D01*
X173759761Y-102465238D01*
X173712142Y-102417619D01*
X173140714Y-102084285D02*
X173140714Y-101703333D01*
X172807380Y-101941428D02*
X173664523Y-101941428D01*
X173759761Y-101893809D01*
X173807380Y-101798571D01*
X173807380Y-101703333D01*
X150500000Y-113357142D02*
X150547619Y-113261904D01*
X150547619Y-113119047D01*
X150500000Y-112976190D01*
X150404761Y-112880952D01*
X150309523Y-112833333D01*
X150119047Y-112785714D01*
X149976190Y-112785714D01*
X149785714Y-112833333D01*
X149690476Y-112880952D01*
X149595238Y-112976190D01*
X149547619Y-113119047D01*
X149547619Y-113214285D01*
X149595238Y-113357142D01*
X149642857Y-113404761D01*
X149976190Y-113404761D01*
X149976190Y-113214285D01*
X150214285Y-113833333D02*
X149547619Y-113833333D01*
X150119047Y-113833333D02*
X150166666Y-113880952D01*
X150214285Y-113976190D01*
X150214285Y-114119047D01*
X150166666Y-114214285D01*
X150071428Y-114261904D01*
X149547619Y-114261904D01*
X149547619Y-115166666D02*
X150547619Y-115166666D01*
X149595238Y-115166666D02*
X149547619Y-115071428D01*
X149547619Y-114880952D01*
X149595238Y-114785714D01*
X149642857Y-114738095D01*
X149738095Y-114690476D01*
X150023809Y-114690476D01*
X150119047Y-114738095D01*
X150166666Y-114785714D01*
X150214285Y-114880952D01*
X150214285Y-115071428D01*
X150166666Y-115166666D01*
X150500000Y-104857142D02*
X150547619Y-104761904D01*
X150547619Y-104619047D01*
X150500000Y-104476190D01*
X150404761Y-104380952D01*
X150309523Y-104333333D01*
X150119047Y-104285714D01*
X149976190Y-104285714D01*
X149785714Y-104333333D01*
X149690476Y-104380952D01*
X149595238Y-104476190D01*
X149547619Y-104619047D01*
X149547619Y-104714285D01*
X149595238Y-104857142D01*
X149642857Y-104904761D01*
X149976190Y-104904761D01*
X149976190Y-104714285D01*
X150214285Y-105333333D02*
X149547619Y-105333333D01*
X150119047Y-105333333D02*
X150166666Y-105380952D01*
X150214285Y-105476190D01*
X150214285Y-105619047D01*
X150166666Y-105714285D01*
X150071428Y-105761904D01*
X149547619Y-105761904D01*
X149547619Y-106666666D02*
X150547619Y-106666666D01*
X149595238Y-106666666D02*
X149547619Y-106571428D01*
X149547619Y-106380952D01*
X149595238Y-106285714D01*
X149642857Y-106238095D01*
X149738095Y-106190476D01*
X150023809Y-106190476D01*
X150119047Y-106238095D01*
X150166666Y-106285714D01*
X150214285Y-106380952D01*
X150214285Y-106571428D01*
X150166666Y-106666666D01*
X149547619Y-110547619D02*
X150547619Y-110547619D01*
X150214285Y-111023809D02*
X149547619Y-111023809D01*
X150119047Y-111023809D02*
X150166666Y-111071428D01*
X150214285Y-111166666D01*
X150214285Y-111309523D01*
X150166666Y-111404761D01*
X150071428Y-111452380D01*
X149547619Y-111452380D01*
X149547619Y-102047619D02*
X150547619Y-102047619D01*
X150214285Y-102523809D02*
X149547619Y-102523809D01*
X150119047Y-102523809D02*
X150166666Y-102571428D01*
X150214285Y-102666666D01*
X150214285Y-102809523D01*
X150166666Y-102904761D01*
X150071428Y-102952380D01*
X149547619Y-102952380D01*
D11*
X151705000Y-109795000D02*
X153035000Y-109795000D01*
X151705000Y-111125000D02*
X151705000Y-109795000D01*
X151705000Y-112395000D02*
X154365000Y-112395000D01*
X154365000Y-112395000D02*
X154365000Y-114995000D01*
X151705000Y-112395000D02*
X151705000Y-114995000D01*
X151705000Y-114995000D02*
X154365000Y-114995000D01*
D10*
X166645000Y-110485000D02*
X166645000Y-100485000D01*
X156645000Y-110485000D02*
X166645000Y-110485000D01*
X156645000Y-100485000D02*
X156645000Y-110485000D01*
X156645000Y-100485000D02*
X166645000Y-100485000D01*
D11*
X168850000Y-109795000D02*
X170180000Y-109795000D01*
X168850000Y-111125000D02*
X168850000Y-109795000D01*
X168850000Y-112395000D02*
X171510000Y-112395000D01*
X171510000Y-112395000D02*
X171510000Y-114995000D01*
X168850000Y-112395000D02*
X168850000Y-114995000D01*
X168850000Y-114995000D02*
X171510000Y-114995000D01*
X168850000Y-101540000D02*
X170180000Y-101540000D01*
X168850000Y-102870000D02*
X168850000Y-101540000D01*
X168850000Y-104140000D02*
X171510000Y-104140000D01*
X171510000Y-104140000D02*
X171510000Y-106740000D01*
X168850000Y-104140000D02*
X168850000Y-106740000D01*
X168850000Y-106740000D02*
X171510000Y-106740000D01*
X151705000Y-101540000D02*
X153035000Y-101540000D01*
X151705000Y-102870000D02*
X151705000Y-101540000D01*
X151705000Y-104140000D02*
X154365000Y-104140000D01*
X154365000Y-104140000D02*
X154365000Y-106740000D01*
X151705000Y-104140000D02*
X151705000Y-106740000D01*
X151705000Y-106740000D02*
X154365000Y-106740000D01*
D10*
X152701666Y-108247380D02*
X152701666Y-108961666D01*
X152654047Y-109104523D01*
X152558809Y-109199761D01*
X152415952Y-109247380D01*
X152320714Y-109247380D01*
X153130238Y-108342619D02*
X153177857Y-108295000D01*
X153273095Y-108247380D01*
X153511190Y-108247380D01*
X153606428Y-108295000D01*
X153654047Y-108342619D01*
X153701666Y-108437857D01*
X153701666Y-108533095D01*
X153654047Y-108675952D01*
X153082619Y-109247380D01*
X153701666Y-109247380D01*
X161449761Y-100337380D02*
X161116428Y-99861190D01*
X160878333Y-100337380D02*
X160878333Y-99337380D01*
X161259285Y-99337380D01*
X161354523Y-99385000D01*
X161402142Y-99432619D01*
X161449761Y-99527857D01*
X161449761Y-99670714D01*
X161402142Y-99765952D01*
X161354523Y-99813571D01*
X161259285Y-99861190D01*
X160878333Y-99861190D01*
X161735476Y-99337380D02*
X162068809Y-100337380D01*
X162402142Y-99337380D01*
X163259285Y-100337380D02*
X162687857Y-100337380D01*
X162973571Y-100337380D02*
X162973571Y-99337380D01*
X162878333Y-99480238D01*
X162783095Y-99575476D01*
X162687857Y-99623095D01*
X169846666Y-108247380D02*
X169846666Y-108961666D01*
X169799047Y-109104523D01*
X169703809Y-109199761D01*
X169560952Y-109247380D01*
X169465714Y-109247380D01*
X170751428Y-108580714D02*
X170751428Y-109247380D01*
X170513333Y-108199761D02*
X170275238Y-108914047D01*
X170894285Y-108914047D01*
X169846666Y-99992380D02*
X169846666Y-100706666D01*
X169799047Y-100849523D01*
X169703809Y-100944761D01*
X169560952Y-100992380D01*
X169465714Y-100992380D01*
X170227619Y-99992380D02*
X170846666Y-99992380D01*
X170513333Y-100373333D01*
X170656190Y-100373333D01*
X170751428Y-100420952D01*
X170799047Y-100468571D01*
X170846666Y-100563809D01*
X170846666Y-100801904D01*
X170799047Y-100897142D01*
X170751428Y-100944761D01*
X170656190Y-100992380D01*
X170370476Y-100992380D01*
X170275238Y-100944761D01*
X170227619Y-100897142D01*
X152701666Y-99992380D02*
X152701666Y-100706666D01*
X152654047Y-100849523D01*
X152558809Y-100944761D01*
X152415952Y-100992380D01*
X152320714Y-100992380D01*
X153701666Y-100992380D02*
X153130238Y-100992380D01*
X153415952Y-100992380D02*
X153415952Y-99992380D01*
X153320714Y-100135238D01*
X153225476Y-100230476D01*
X153130238Y-100278095D01*
M02*
