G04 #@! TF.GenerationSoftware,KiCad,Pcbnew,(5.1.4)-1*
G04 #@! TF.CreationDate,2021-12-16T17:19:03+00:00*
G04 #@! TF.ProjectId,bourns_breakout,626f7572-6e73-45f6-9272-65616b6f7574,rev?*
G04 #@! TF.SameCoordinates,Original*
G04 #@! TF.FileFunction,Soldermask,Bot*
G04 #@! TF.FilePolarity,Negative*
%FSLAX46Y46*%
G04 Gerber Fmt 4.6, Leading zero omitted, Abs format (unit mm)*
G04 Created by KiCad (PCBNEW (5.1.4)-1) date 2021-12-16 17:19:03*
%MOMM*%
%LPD*%
G04 APERTURE LIST*
%ADD10C,0.100000*%
G04 APERTURE END LIST*
D10*
G36*
X153145442Y-112770518D02*
G01*
X153211627Y-112777037D01*
X153381466Y-112828557D01*
X153537991Y-112912222D01*
X153573729Y-112941552D01*
X153675186Y-113024814D01*
X153758448Y-113126271D01*
X153787778Y-113162009D01*
X153871443Y-113318534D01*
X153922963Y-113488373D01*
X153940359Y-113665000D01*
X153922963Y-113841627D01*
X153871443Y-114011466D01*
X153787778Y-114167991D01*
X153758448Y-114203729D01*
X153675186Y-114305186D01*
X153573729Y-114388448D01*
X153537991Y-114417778D01*
X153381466Y-114501443D01*
X153211627Y-114552963D01*
X153145442Y-114559482D01*
X153079260Y-114566000D01*
X152990740Y-114566000D01*
X152924558Y-114559482D01*
X152858373Y-114552963D01*
X152688534Y-114501443D01*
X152532009Y-114417778D01*
X152496271Y-114388448D01*
X152394814Y-114305186D01*
X152311552Y-114203729D01*
X152282222Y-114167991D01*
X152198557Y-114011466D01*
X152147037Y-113841627D01*
X152129641Y-113665000D01*
X152147037Y-113488373D01*
X152198557Y-113318534D01*
X152282222Y-113162009D01*
X152311552Y-113126271D01*
X152394814Y-113024814D01*
X152496271Y-112941552D01*
X152532009Y-112912222D01*
X152688534Y-112828557D01*
X152858373Y-112777037D01*
X152924558Y-112770518D01*
X152990740Y-112764000D01*
X153079260Y-112764000D01*
X153145442Y-112770518D01*
X153145442Y-112770518D01*
G37*
G36*
X170290442Y-112770518D02*
G01*
X170356627Y-112777037D01*
X170526466Y-112828557D01*
X170682991Y-112912222D01*
X170718729Y-112941552D01*
X170820186Y-113024814D01*
X170903448Y-113126271D01*
X170932778Y-113162009D01*
X171016443Y-113318534D01*
X171067963Y-113488373D01*
X171085359Y-113665000D01*
X171067963Y-113841627D01*
X171016443Y-114011466D01*
X170932778Y-114167991D01*
X170903448Y-114203729D01*
X170820186Y-114305186D01*
X170718729Y-114388448D01*
X170682991Y-114417778D01*
X170526466Y-114501443D01*
X170356627Y-114552963D01*
X170290442Y-114559482D01*
X170224260Y-114566000D01*
X170135740Y-114566000D01*
X170069558Y-114559482D01*
X170003373Y-114552963D01*
X169833534Y-114501443D01*
X169677009Y-114417778D01*
X169641271Y-114388448D01*
X169539814Y-114305186D01*
X169456552Y-114203729D01*
X169427222Y-114167991D01*
X169343557Y-114011466D01*
X169292037Y-113841627D01*
X169274641Y-113665000D01*
X169292037Y-113488373D01*
X169343557Y-113318534D01*
X169427222Y-113162009D01*
X169456552Y-113126271D01*
X169539814Y-113024814D01*
X169641271Y-112941552D01*
X169677009Y-112912222D01*
X169833534Y-112828557D01*
X170003373Y-112777037D01*
X170069558Y-112770518D01*
X170135740Y-112764000D01*
X170224260Y-112764000D01*
X170290442Y-112770518D01*
X170290442Y-112770518D01*
G37*
G36*
X153936000Y-112026000D02*
G01*
X152134000Y-112026000D01*
X152134000Y-110224000D01*
X153936000Y-110224000D01*
X153936000Y-112026000D01*
X153936000Y-112026000D01*
G37*
G36*
X171081000Y-112026000D02*
G01*
X169279000Y-112026000D01*
X169279000Y-110224000D01*
X171081000Y-110224000D01*
X171081000Y-112026000D01*
X171081000Y-112026000D01*
G37*
G36*
X164382142Y-107203242D02*
G01*
X164530101Y-107264529D01*
X164663255Y-107353499D01*
X164776501Y-107466745D01*
X164865471Y-107599899D01*
X164926758Y-107747858D01*
X164958000Y-107904925D01*
X164958000Y-108065075D01*
X164926758Y-108222142D01*
X164865471Y-108370101D01*
X164776501Y-108503255D01*
X164663255Y-108616501D01*
X164530101Y-108705471D01*
X164382142Y-108766758D01*
X164225075Y-108798000D01*
X164064925Y-108798000D01*
X163907858Y-108766758D01*
X163759899Y-108705471D01*
X163626745Y-108616501D01*
X163513499Y-108503255D01*
X163424529Y-108370101D01*
X163363242Y-108222142D01*
X163332000Y-108065075D01*
X163332000Y-107904925D01*
X163363242Y-107747858D01*
X163424529Y-107599899D01*
X163513499Y-107466745D01*
X163626745Y-107353499D01*
X163759899Y-107264529D01*
X163907858Y-107203242D01*
X164064925Y-107172000D01*
X164225075Y-107172000D01*
X164382142Y-107203242D01*
X164382142Y-107203242D01*
G37*
G36*
X159382142Y-107203242D02*
G01*
X159530101Y-107264529D01*
X159663255Y-107353499D01*
X159776501Y-107466745D01*
X159865471Y-107599899D01*
X159926758Y-107747858D01*
X159958000Y-107904925D01*
X159958000Y-108065075D01*
X159926758Y-108222142D01*
X159865471Y-108370101D01*
X159776501Y-108503255D01*
X159663255Y-108616501D01*
X159530101Y-108705471D01*
X159382142Y-108766758D01*
X159225075Y-108798000D01*
X159064925Y-108798000D01*
X158907858Y-108766758D01*
X158759899Y-108705471D01*
X158626745Y-108616501D01*
X158513499Y-108503255D01*
X158424529Y-108370101D01*
X158363242Y-108222142D01*
X158332000Y-108065075D01*
X158332000Y-107904925D01*
X158363242Y-107747858D01*
X158424529Y-107599899D01*
X158513499Y-107466745D01*
X158626745Y-107353499D01*
X158759899Y-107264529D01*
X158907858Y-107203242D01*
X159064925Y-107172000D01*
X159225075Y-107172000D01*
X159382142Y-107203242D01*
X159382142Y-107203242D01*
G37*
G36*
X161882142Y-107203242D02*
G01*
X162030101Y-107264529D01*
X162163255Y-107353499D01*
X162276501Y-107466745D01*
X162365471Y-107599899D01*
X162426758Y-107747858D01*
X162458000Y-107904925D01*
X162458000Y-108065075D01*
X162426758Y-108222142D01*
X162365471Y-108370101D01*
X162276501Y-108503255D01*
X162163255Y-108616501D01*
X162030101Y-108705471D01*
X161882142Y-108766758D01*
X161725075Y-108798000D01*
X161564925Y-108798000D01*
X161407858Y-108766758D01*
X161259899Y-108705471D01*
X161126745Y-108616501D01*
X161013499Y-108503255D01*
X160924529Y-108370101D01*
X160863242Y-108222142D01*
X160832000Y-108065075D01*
X160832000Y-107904925D01*
X160863242Y-107747858D01*
X160924529Y-107599899D01*
X161013499Y-107466745D01*
X161126745Y-107353499D01*
X161259899Y-107264529D01*
X161407858Y-107203242D01*
X161564925Y-107172000D01*
X161725075Y-107172000D01*
X161882142Y-107203242D01*
X161882142Y-107203242D01*
G37*
G36*
X153145443Y-104515519D02*
G01*
X153211627Y-104522037D01*
X153381466Y-104573557D01*
X153537991Y-104657222D01*
X153555998Y-104672000D01*
X153675186Y-104769814D01*
X153743863Y-104853499D01*
X153787778Y-104907009D01*
X153871443Y-105063534D01*
X153922963Y-105233373D01*
X153940359Y-105410000D01*
X153922963Y-105586627D01*
X153871443Y-105756466D01*
X153787778Y-105912991D01*
X153758448Y-105948729D01*
X153675186Y-106050186D01*
X153573729Y-106133448D01*
X153537991Y-106162778D01*
X153381466Y-106246443D01*
X153211627Y-106297963D01*
X153145442Y-106304482D01*
X153079260Y-106311000D01*
X152990740Y-106311000D01*
X152924558Y-106304482D01*
X152858373Y-106297963D01*
X152688534Y-106246443D01*
X152532009Y-106162778D01*
X152496271Y-106133448D01*
X152394814Y-106050186D01*
X152311552Y-105948729D01*
X152282222Y-105912991D01*
X152198557Y-105756466D01*
X152147037Y-105586627D01*
X152129641Y-105410000D01*
X152147037Y-105233373D01*
X152198557Y-105063534D01*
X152282222Y-104907009D01*
X152326137Y-104853499D01*
X152394814Y-104769814D01*
X152514002Y-104672000D01*
X152532009Y-104657222D01*
X152688534Y-104573557D01*
X152858373Y-104522037D01*
X152924557Y-104515519D01*
X152990740Y-104509000D01*
X153079260Y-104509000D01*
X153145443Y-104515519D01*
X153145443Y-104515519D01*
G37*
G36*
X170290443Y-104515519D02*
G01*
X170356627Y-104522037D01*
X170526466Y-104573557D01*
X170682991Y-104657222D01*
X170700998Y-104672000D01*
X170820186Y-104769814D01*
X170888863Y-104853499D01*
X170932778Y-104907009D01*
X171016443Y-105063534D01*
X171067963Y-105233373D01*
X171085359Y-105410000D01*
X171067963Y-105586627D01*
X171016443Y-105756466D01*
X170932778Y-105912991D01*
X170903448Y-105948729D01*
X170820186Y-106050186D01*
X170718729Y-106133448D01*
X170682991Y-106162778D01*
X170526466Y-106246443D01*
X170356627Y-106297963D01*
X170290442Y-106304482D01*
X170224260Y-106311000D01*
X170135740Y-106311000D01*
X170069558Y-106304482D01*
X170003373Y-106297963D01*
X169833534Y-106246443D01*
X169677009Y-106162778D01*
X169641271Y-106133448D01*
X169539814Y-106050186D01*
X169456552Y-105948729D01*
X169427222Y-105912991D01*
X169343557Y-105756466D01*
X169292037Y-105586627D01*
X169274641Y-105410000D01*
X169292037Y-105233373D01*
X169343557Y-105063534D01*
X169427222Y-104907009D01*
X169471137Y-104853499D01*
X169539814Y-104769814D01*
X169659002Y-104672000D01*
X169677009Y-104657222D01*
X169833534Y-104573557D01*
X170003373Y-104522037D01*
X170069557Y-104515519D01*
X170135740Y-104509000D01*
X170224260Y-104509000D01*
X170290443Y-104515519D01*
X170290443Y-104515519D01*
G37*
G36*
X159382142Y-104703242D02*
G01*
X159530101Y-104764529D01*
X159663255Y-104853499D01*
X159776501Y-104966745D01*
X159865471Y-105099899D01*
X159926758Y-105247858D01*
X159958000Y-105404925D01*
X159958000Y-105565075D01*
X159926758Y-105722142D01*
X159865471Y-105870101D01*
X159776501Y-106003255D01*
X159663255Y-106116501D01*
X159530101Y-106205471D01*
X159382142Y-106266758D01*
X159225075Y-106298000D01*
X159064925Y-106298000D01*
X158907858Y-106266758D01*
X158759899Y-106205471D01*
X158626745Y-106116501D01*
X158513499Y-106003255D01*
X158424529Y-105870101D01*
X158363242Y-105722142D01*
X158332000Y-105565075D01*
X158332000Y-105404925D01*
X158363242Y-105247858D01*
X158424529Y-105099899D01*
X158513499Y-104966745D01*
X158626745Y-104853499D01*
X158759899Y-104764529D01*
X158907858Y-104703242D01*
X159064925Y-104672000D01*
X159225075Y-104672000D01*
X159382142Y-104703242D01*
X159382142Y-104703242D01*
G37*
G36*
X161882142Y-104703242D02*
G01*
X162030101Y-104764529D01*
X162163255Y-104853499D01*
X162276501Y-104966745D01*
X162365471Y-105099899D01*
X162426758Y-105247858D01*
X162458000Y-105404925D01*
X162458000Y-105565075D01*
X162426758Y-105722142D01*
X162365471Y-105870101D01*
X162276501Y-106003255D01*
X162163255Y-106116501D01*
X162030101Y-106205471D01*
X161882142Y-106266758D01*
X161725075Y-106298000D01*
X161564925Y-106298000D01*
X161407858Y-106266758D01*
X161259899Y-106205471D01*
X161126745Y-106116501D01*
X161013499Y-106003255D01*
X160924529Y-105870101D01*
X160863242Y-105722142D01*
X160832000Y-105565075D01*
X160832000Y-105404925D01*
X160863242Y-105247858D01*
X160924529Y-105099899D01*
X161013499Y-104966745D01*
X161126745Y-104853499D01*
X161259899Y-104764529D01*
X161407858Y-104703242D01*
X161564925Y-104672000D01*
X161725075Y-104672000D01*
X161882142Y-104703242D01*
X161882142Y-104703242D01*
G37*
G36*
X164382142Y-104703242D02*
G01*
X164530101Y-104764529D01*
X164663255Y-104853499D01*
X164776501Y-104966745D01*
X164865471Y-105099899D01*
X164926758Y-105247858D01*
X164958000Y-105404925D01*
X164958000Y-105565075D01*
X164926758Y-105722142D01*
X164865471Y-105870101D01*
X164776501Y-106003255D01*
X164663255Y-106116501D01*
X164530101Y-106205471D01*
X164382142Y-106266758D01*
X164225075Y-106298000D01*
X164064925Y-106298000D01*
X163907858Y-106266758D01*
X163759899Y-106205471D01*
X163626745Y-106116501D01*
X163513499Y-106003255D01*
X163424529Y-105870101D01*
X163363242Y-105722142D01*
X163332000Y-105565075D01*
X163332000Y-105404925D01*
X163363242Y-105247858D01*
X163424529Y-105099899D01*
X163513499Y-104966745D01*
X163626745Y-104853499D01*
X163759899Y-104764529D01*
X163907858Y-104703242D01*
X164064925Y-104672000D01*
X164225075Y-104672000D01*
X164382142Y-104703242D01*
X164382142Y-104703242D01*
G37*
G36*
X171081000Y-103771000D02*
G01*
X169279000Y-103771000D01*
X169279000Y-101969000D01*
X171081000Y-101969000D01*
X171081000Y-103771000D01*
X171081000Y-103771000D01*
G37*
G36*
X153936000Y-103771000D02*
G01*
X152134000Y-103771000D01*
X152134000Y-101969000D01*
X153936000Y-101969000D01*
X153936000Y-103771000D01*
X153936000Y-103771000D01*
G37*
M02*
